-- Merging decision tree log ---
manifest
ADDED from /home/luigigo/Desktop/Unilab/Projects/PSR_KAP/app/src/main/AndroidManifest.xml:2:1-115:12
	package
		ADDED from /home/luigigo/Desktop/Unilab/Projects/PSR_KAP/app/src/main/AndroidManifest.xml:3:5-33
		INJECTED from /home/luigigo/Desktop/Unilab/Projects/PSR_KAP/app/src/main/AndroidManifest.xml
		INJECTED from /home/luigigo/Desktop/Unilab/Projects/PSR_KAP/app/src/main/AndroidManifest.xml
	android:versionName
		ADDED from /home/luigigo/Desktop/Unilab/Projects/PSR_KAP/app/src/main/AndroidManifest.xml:5:5-30
		INJECTED from /home/luigigo/Desktop/Unilab/Projects/PSR_KAP/app/src/main/AndroidManifest.xml
		INJECTED from /home/luigigo/Desktop/Unilab/Projects/PSR_KAP/app/src/main/AndroidManifest.xml
	android:versionCode
		ADDED from /home/luigigo/Desktop/Unilab/Projects/PSR_KAP/app/src/main/AndroidManifest.xml:4:5-28
		INJECTED from /home/luigigo/Desktop/Unilab/Projects/PSR_KAP/app/src/main/AndroidManifest.xml
		INJECTED from /home/luigigo/Desktop/Unilab/Projects/PSR_KAP/app/src/main/AndroidManifest.xml
	xmlns:android
		ADDED from /home/luigigo/Desktop/Unilab/Projects/PSR_KAP/app/src/main/AndroidManifest.xml:2:11-69
uses-permission#android.permission.SEND_SMS
ADDED from /home/luigigo/Desktop/Unilab/Projects/PSR_KAP/app/src/main/AndroidManifest.xml:7:5-67
	android:name
		ADDED from /home/luigigo/Desktop/Unilab/Projects/PSR_KAP/app/src/main/AndroidManifest.xml:7:22-64
uses-permission#android.permission.RECEIVE_SMS
ADDED from /home/luigigo/Desktop/Unilab/Projects/PSR_KAP/app/src/main/AndroidManifest.xml:8:5-70
	android:name
		ADDED from /home/luigigo/Desktop/Unilab/Projects/PSR_KAP/app/src/main/AndroidManifest.xml:8:22-67
uses-permission#android.permission.INTERNET
ADDED from /home/luigigo/Desktop/Unilab/Projects/PSR_KAP/app/src/main/AndroidManifest.xml:9:5-67
	android:name
		ADDED from /home/luigigo/Desktop/Unilab/Projects/PSR_KAP/app/src/main/AndroidManifest.xml:9:22-64
uses-permission#android.permission.ACCESS_NETWORK_STATE
ADDED from /home/luigigo/Desktop/Unilab/Projects/PSR_KAP/app/src/main/AndroidManifest.xml:10:5-79
	android:name
		ADDED from /home/luigigo/Desktop/Unilab/Projects/PSR_KAP/app/src/main/AndroidManifest.xml:10:22-76
uses-permission#android.permission.ACCESS_WIFI_STATE
ADDED from /home/luigigo/Desktop/Unilab/Projects/PSR_KAP/app/src/main/AndroidManifest.xml:11:5-76
	android:name
		ADDED from /home/luigigo/Desktop/Unilab/Projects/PSR_KAP/app/src/main/AndroidManifest.xml:11:22-73
uses-permission#android.permission.WRITE_EXTERNAL_STORAGE
ADDED from /home/luigigo/Desktop/Unilab/Projects/PSR_KAP/app/src/main/AndroidManifest.xml:12:5-81
	android:name
		ADDED from /home/luigigo/Desktop/Unilab/Projects/PSR_KAP/app/src/main/AndroidManifest.xml:12:22-78
uses-permission#android.permission.READ_EXTERNAL_STORAGE
ADDED from /home/luigigo/Desktop/Unilab/Projects/PSR_KAP/app/src/main/AndroidManifest.xml:13:5-80
	android:name
		ADDED from /home/luigigo/Desktop/Unilab/Projects/PSR_KAP/app/src/main/AndroidManifest.xml:13:22-77
uses-permission#android.permission.WAKE_LOCK
ADDED from /home/luigigo/Desktop/Unilab/Projects/PSR_KAP/app/src/main/AndroidManifest.xml:15:5-68
	android:name
		ADDED from /home/luigigo/Desktop/Unilab/Projects/PSR_KAP/app/src/main/AndroidManifest.xml:15:22-65
uses-permission#android.permission.RECEIVE_BOOT_COMPLETED
ADDED from /home/luigigo/Desktop/Unilab/Projects/PSR_KAP/app/src/main/AndroidManifest.xml:16:5-81
	android:name
		ADDED from /home/luigigo/Desktop/Unilab/Projects/PSR_KAP/app/src/main/AndroidManifest.xml:16:22-78
supports-screens
ADDED from /home/luigigo/Desktop/Unilab/Projects/PSR_KAP/app/src/main/AndroidManifest.xml:18:5-23:36
	android:largeScreens
		ADDED from /home/luigigo/Desktop/Unilab/Projects/PSR_KAP/app/src/main/AndroidManifest.xml:20:9-36
	android:smallScreens
		ADDED from /home/luigigo/Desktop/Unilab/Projects/PSR_KAP/app/src/main/AndroidManifest.xml:18:23-50
	android:normalScreens
		ADDED from /home/luigigo/Desktop/Unilab/Projects/PSR_KAP/app/src/main/AndroidManifest.xml:19:9-37
	android:xlargeScreens
		ADDED from /home/luigigo/Desktop/Unilab/Projects/PSR_KAP/app/src/main/AndroidManifest.xml:21:9-37
	android:resizeable
		ADDED from /home/luigigo/Desktop/Unilab/Projects/PSR_KAP/app/src/main/AndroidManifest.xml:23:9-34
	android:anyDensity
		ADDED from /home/luigigo/Desktop/Unilab/Projects/PSR_KAP/app/src/main/AndroidManifest.xml:22:9-34
uses-sdk
ADDED from /home/luigigo/Desktop/Unilab/Projects/PSR_KAP/app/src/main/AndroidManifest.xml:25:5-27:41
MERGED from [com.android.support:appcompat-v7:23.4.0] /home/luigigo/Desktop/Unilab/Projects/PSR_KAP/app/build/intermediates/exploded-aar/com.android.support/appcompat-v7/23.4.0/AndroidManifest.xml:21:5-23:78
MERGED from [com.android.support:animated-vector-drawable:23.4.0] /home/luigigo/Desktop/Unilab/Projects/PSR_KAP/app/build/intermediates/exploded-aar/com.android.support/animated-vector-drawable/23.4.0/AndroidManifest.xml:5:5-44
MERGED from [com.android.support:support-vector-drawable:23.4.0] /home/luigigo/Desktop/Unilab/Projects/PSR_KAP/app/build/intermediates/exploded-aar/com.android.support/support-vector-drawable/23.4.0/AndroidManifest.xml:5:5-43
MERGED from [com.android.support:support-v4:23.4.0] /home/luigigo/Desktop/Unilab/Projects/PSR_KAP/app/build/intermediates/exploded-aar/com.android.support/support-v4/23.4.0/AndroidManifest.xml:20:5-43
	tools:overrideLibrary
		ADDED from [com.android.support:appcompat-v7:23.4.0] /home/luigigo/Desktop/Unilab/Projects/PSR_KAP/app/build/intermediates/exploded-aar/com.android.support/appcompat-v7/23.4.0/AndroidManifest.xml:23:9-75
	android:targetSdkVersion
		ADDED from /home/luigigo/Desktop/Unilab/Projects/PSR_KAP/app/src/main/AndroidManifest.xml:27:9-38
		INJECTED from /home/luigigo/Desktop/Unilab/Projects/PSR_KAP/app/src/main/AndroidManifest.xml
		INJECTED from /home/luigigo/Desktop/Unilab/Projects/PSR_KAP/app/src/main/AndroidManifest.xml
	android:minSdkVersion
		ADDED from /home/luigigo/Desktop/Unilab/Projects/PSR_KAP/app/src/main/AndroidManifest.xml:26:9-35
		INJECTED from /home/luigigo/Desktop/Unilab/Projects/PSR_KAP/app/src/main/AndroidManifest.xml
		INJECTED from /home/luigigo/Desktop/Unilab/Projects/PSR_KAP/app/src/main/AndroidManifest.xml
application
ADDED from /home/luigigo/Desktop/Unilab/Projects/PSR_KAP/app/src/main/AndroidManifest.xml:29:5-113:19
MERGED from [com.android.support:appcompat-v7:23.4.0] /home/luigigo/Desktop/Unilab/Projects/PSR_KAP/app/build/intermediates/exploded-aar/com.android.support/appcompat-v7/23.4.0/AndroidManifest.xml:25:5-20
MERGED from [com.android.support:animated-vector-drawable:23.4.0] /home/luigigo/Desktop/Unilab/Projects/PSR_KAP/app/build/intermediates/exploded-aar/com.android.support/animated-vector-drawable/23.4.0/AndroidManifest.xml:7:5-20
MERGED from [com.android.support:support-vector-drawable:23.4.0] /home/luigigo/Desktop/Unilab/Projects/PSR_KAP/app/build/intermediates/exploded-aar/com.android.support/support-vector-drawable/23.4.0/AndroidManifest.xml:7:5-20
MERGED from [com.android.support:support-v4:23.4.0] /home/luigigo/Desktop/Unilab/Projects/PSR_KAP/app/build/intermediates/exploded-aar/com.android.support/support-v4/23.4.0/AndroidManifest.xml:22:5-20
	android:label
		ADDED from /home/luigigo/Desktop/Unilab/Projects/PSR_KAP/app/src/main/AndroidManifest.xml:32:9-41
	android:allowBackup
		ADDED from /home/luigigo/Desktop/Unilab/Projects/PSR_KAP/app/src/main/AndroidManifest.xml:30:9-35
	android:icon
		ADDED from /home/luigigo/Desktop/Unilab/Projects/PSR_KAP/app/src/main/AndroidManifest.xml:31:9-45
	android:largeHeap
		ADDED from /home/luigigo/Desktop/Unilab/Projects/PSR_KAP/app/src/main/AndroidManifest.xml:33:9-33
	android:theme
		ADDED from /home/luigigo/Desktop/Unilab/Projects/PSR_KAP/app/src/main/AndroidManifest.xml:34:9-40
activity#com.ph.com.psr_kap.RegistrationPage
ADDED from /home/luigigo/Desktop/Unilab/Projects/PSR_KAP/app/src/main/AndroidManifest.xml:35:9-40:79
	android:screenOrientation
		ADDED from /home/luigigo/Desktop/Unilab/Projects/PSR_KAP/app/src/main/AndroidManifest.xml:39:13-56
	android:label
		ADDED from /home/luigigo/Desktop/Unilab/Projects/PSR_KAP/app/src/main/AndroidManifest.xml:37:13-45
	android:launchMode
		ADDED from /home/luigigo/Desktop/Unilab/Projects/PSR_KAP/app/src/main/AndroidManifest.xml:38:13-43
	android:windowSoftInputMode
		ADDED from /home/luigigo/Desktop/Unilab/Projects/PSR_KAP/app/src/main/AndroidManifest.xml:40:13-67
	android:name
		ADDED from /home/luigigo/Desktop/Unilab/Projects/PSR_KAP/app/src/main/AndroidManifest.xml:36:13-63
activity#com.ph.com.psr_kap.ThankYou
ADDED from /home/luigigo/Desktop/Unilab/Projects/PSR_KAP/app/src/main/AndroidManifest.xml:48:9-52:79
	android:screenOrientation
		ADDED from /home/luigigo/Desktop/Unilab/Projects/PSR_KAP/app/src/main/AndroidManifest.xml:51:13-56
	android:label
		ADDED from /home/luigigo/Desktop/Unilab/Projects/PSR_KAP/app/src/main/AndroidManifest.xml:50:13-61
	android:windowSoftInputMode
		ADDED from /home/luigigo/Desktop/Unilab/Projects/PSR_KAP/app/src/main/AndroidManifest.xml:52:13-67
	android:name
		ADDED from /home/luigigo/Desktop/Unilab/Projects/PSR_KAP/app/src/main/AndroidManifest.xml:49:13-55
activity#com.ph.com.psr_kap.AdminPage
ADDED from /home/luigigo/Desktop/Unilab/Projects/PSR_KAP/app/src/main/AndroidManifest.xml:53:9-57:79
	android:screenOrientation
		ADDED from /home/luigigo/Desktop/Unilab/Projects/PSR_KAP/app/src/main/AndroidManifest.xml:56:13-56
	android:label
		ADDED from /home/luigigo/Desktop/Unilab/Projects/PSR_KAP/app/src/main/AndroidManifest.xml:55:13-62
	android:windowSoftInputMode
		ADDED from /home/luigigo/Desktop/Unilab/Projects/PSR_KAP/app/src/main/AndroidManifest.xml:57:13-67
	android:name
		ADDED from /home/luigigo/Desktop/Unilab/Projects/PSR_KAP/app/src/main/AndroidManifest.xml:54:13-56
activity#com.ph.com.psr_kap.SearchPage
ADDED from /home/luigigo/Desktop/Unilab/Projects/PSR_KAP/app/src/main/AndroidManifest.xml:58:9-62:79
	android:screenOrientation
		ADDED from /home/luigigo/Desktop/Unilab/Projects/PSR_KAP/app/src/main/AndroidManifest.xml:61:13-56
	android:label
		ADDED from /home/luigigo/Desktop/Unilab/Projects/PSR_KAP/app/src/main/AndroidManifest.xml:60:13-63
	android:windowSoftInputMode
		ADDED from /home/luigigo/Desktop/Unilab/Projects/PSR_KAP/app/src/main/AndroidManifest.xml:62:13-67
	android:name
		ADDED from /home/luigigo/Desktop/Unilab/Projects/PSR_KAP/app/src/main/AndroidManifest.xml:59:13-57
activity#com.ph.com.psr_kap.MdlistPage
ADDED from /home/luigigo/Desktop/Unilab/Projects/PSR_KAP/app/src/main/AndroidManifest.xml:63:9-67:79
	android:screenOrientation
		ADDED from /home/luigigo/Desktop/Unilab/Projects/PSR_KAP/app/src/main/AndroidManifest.xml:66:13-56
	android:label
		ADDED from /home/luigigo/Desktop/Unilab/Projects/PSR_KAP/app/src/main/AndroidManifest.xml:65:13-63
	android:windowSoftInputMode
		ADDED from /home/luigigo/Desktop/Unilab/Projects/PSR_KAP/app/src/main/AndroidManifest.xml:67:13-67
	android:name
		ADDED from /home/luigigo/Desktop/Unilab/Projects/PSR_KAP/app/src/main/AndroidManifest.xml:64:13-57
activity#com.ph.com.psr_kap.Login
ADDED from /home/luigigo/Desktop/Unilab/Projects/PSR_KAP/app/src/main/AndroidManifest.xml:68:9-78:20
	android:screenOrientation
		ADDED from /home/luigigo/Desktop/Unilab/Projects/PSR_KAP/app/src/main/AndroidManifest.xml:70:13-56
	android:windowSoftInputMode
		ADDED from /home/luigigo/Desktop/Unilab/Projects/PSR_KAP/app/src/main/AndroidManifest.xml:71:13-67
	android:name
		ADDED from /home/luigigo/Desktop/Unilab/Projects/PSR_KAP/app/src/main/AndroidManifest.xml:69:13-52
intent-filter#android.intent.action.MAIN+android.intent.category.LAUNCHER
ADDED from /home/luigigo/Desktop/Unilab/Projects/PSR_KAP/app/src/main/AndroidManifest.xml:74:13-77:29
action#android.intent.action.MAIN
ADDED from /home/luigigo/Desktop/Unilab/Projects/PSR_KAP/app/src/main/AndroidManifest.xml:75:17-69
	android:name
		ADDED from /home/luigigo/Desktop/Unilab/Projects/PSR_KAP/app/src/main/AndroidManifest.xml:75:25-66
category#android.intent.category.LAUNCHER
ADDED from /home/luigigo/Desktop/Unilab/Projects/PSR_KAP/app/src/main/AndroidManifest.xml:76:17-77
	android:name
		ADDED from /home/luigigo/Desktop/Unilab/Projects/PSR_KAP/app/src/main/AndroidManifest.xml:76:27-74
receiver#com.ph.com.psr_kap.service.AutoEmailReceiver
ADDED from /home/luigigo/Desktop/Unilab/Projects/PSR_KAP/app/src/main/AndroidManifest.xml:80:9-90
	android:name
		ADDED from /home/luigigo/Desktop/Unilab/Projects/PSR_KAP/app/src/main/AndroidManifest.xml:80:19-78
receiver#com.ph.com.psr_kap.service.ReceiverBootTrigger
ADDED from /home/luigigo/Desktop/Unilab/Projects/PSR_KAP/app/src/main/AndroidManifest.xml:82:9-87:20
	android:name
		ADDED from /home/luigigo/Desktop/Unilab/Projects/PSR_KAP/app/src/main/AndroidManifest.xml:82:19-80
intent-filter#android.intent.action.BOOT_COMPLETED+android.intent.action.PHONE_STATE
ADDED from /home/luigigo/Desktop/Unilab/Projects/PSR_KAP/app/src/main/AndroidManifest.xml:83:13-86:29
action#android.intent.action.PHONE_STATE
ADDED from /home/luigigo/Desktop/Unilab/Projects/PSR_KAP/app/src/main/AndroidManifest.xml:84:17-76
	android:name
		ADDED from /home/luigigo/Desktop/Unilab/Projects/PSR_KAP/app/src/main/AndroidManifest.xml:84:25-73
action#android.intent.action.BOOT_COMPLETED
ADDED from /home/luigigo/Desktop/Unilab/Projects/PSR_KAP/app/src/main/AndroidManifest.xml:85:17-79
	android:name
		ADDED from /home/luigigo/Desktop/Unilab/Projects/PSR_KAP/app/src/main/AndroidManifest.xml:85:25-76
service#com.ph.com.psr_kap.service.EmailService
ADDED from /home/luigigo/Desktop/Unilab/Projects/PSR_KAP/app/src/main/AndroidManifest.xml:89:9-91:38
	android:enabled
		ADDED from /home/luigigo/Desktop/Unilab/Projects/PSR_KAP/app/src/main/AndroidManifest.xml:91:13-35
	android:name
		ADDED from /home/luigigo/Desktop/Unilab/Projects/PSR_KAP/app/src/main/AndroidManifest.xml:90:13-67
receiver#com.ph.com.psr_kap.sms.SmsSentReceiver
ADDED from /home/luigigo/Desktop/Unilab/Projects/PSR_KAP/app/src/main/AndroidManifest.xml:93:9-99:20
	android:enabled
		ADDED from /home/luigigo/Desktop/Unilab/Projects/PSR_KAP/app/src/main/AndroidManifest.xml:95:13-35
	android:name
		ADDED from /home/luigigo/Desktop/Unilab/Projects/PSR_KAP/app/src/main/AndroidManifest.xml:94:13-66
intent-filter#SMS_SENT
ADDED from /home/luigigo/Desktop/Unilab/Projects/PSR_KAP/app/src/main/AndroidManifest.xml:96:13-98:29
	android:priority
		ADDED from /home/luigigo/Desktop/Unilab/Projects/PSR_KAP/app/src/main/AndroidManifest.xml:96:28-57
action#SMS_SENT
ADDED from /home/luigigo/Desktop/Unilab/Projects/PSR_KAP/app/src/main/AndroidManifest.xml:97:17-58
	android:name
		ADDED from /home/luigigo/Desktop/Unilab/Projects/PSR_KAP/app/src/main/AndroidManifest.xml:97:25-48
receiver#com.ph.com.psr_kap.sms.SmsDeliveredReceiver
ADDED from /home/luigigo/Desktop/Unilab/Projects/PSR_KAP/app/src/main/AndroidManifest.xml:101:9-105:20
	android:name
		ADDED from /home/luigigo/Desktop/Unilab/Projects/PSR_KAP/app/src/main/AndroidManifest.xml:101:19-77
intent-filter#android.provider.Telephony.SMS_DELIVER
ADDED from /home/luigigo/Desktop/Unilab/Projects/PSR_KAP/app/src/main/AndroidManifest.xml:102:13-104:29
action#android.provider.Telephony.SMS_DELIVER
ADDED from /home/luigigo/Desktop/Unilab/Projects/PSR_KAP/app/src/main/AndroidManifest.xml:103:17-88
	android:name
		ADDED from /home/luigigo/Desktop/Unilab/Projects/PSR_KAP/app/src/main/AndroidManifest.xml:103:25-78
receiver#com.ph.com.psr_kap.utilities.receivers.SMSReceivers
ADDED from /home/luigigo/Desktop/Unilab/Projects/PSR_KAP/app/src/main/AndroidManifest.xml:107:9-111:20
	android:name
		ADDED from /home/luigigo/Desktop/Unilab/Projects/PSR_KAP/app/src/main/AndroidManifest.xml:107:19-67
intent-filter#com.ph.com.psr_kap.utilities.receivers.sms
ADDED from /home/luigigo/Desktop/Unilab/Projects/PSR_KAP/app/src/main/AndroidManifest.xml:108:13-110:29
action#com.ph.com.psr_kap.utilities.receivers.sms
ADDED from /home/luigigo/Desktop/Unilab/Projects/PSR_KAP/app/src/main/AndroidManifest.xml:109:17-85
	android:name
		ADDED from /home/luigigo/Desktop/Unilab/Projects/PSR_KAP/app/src/main/AndroidManifest.xml:109:25-82
